Pagination in Node.js is a technique used to divide a large set of data into smaller, more manageable chunks or pages when presenting that data to users through a web application or API. This helps improve the user experience by reducing the amount of data loaded and displayed on a single page, making it easier to navigate through large datasets.

Here's how you can implement pagination in a Node.js application:

    Data Source: You have a source of data, typically a database or an external API, that you want to paginate.

    Client Request: When a client (usually a web browser or a mobile app) requests data, it includes parameters to specify the page number and the number of items to display per page. These parameters are often included in the query string of the URL.

    Example URL with pagination parameters:

    bash

http://example.com/api/products?page=2&limit=10

    page: The page number requested (e.g., 2 for the second page).
    limit: The number of items to display per page (e.g., 10 items per page).

Server-Side Pagination: In your Node.js application, you need to handle these parameters and fetch the relevant data from your data source based on the page and limit specified.

For example, you might use a database query with LIMIT and OFFSET clauses (or equivalent) to fetch the data for a specific page.

javascript

const page = req.query.page || 1;
const limit = req.query.limit || 10;
const offset = (page - 1) * limit;

// Fetch data from the database
const queryResult = await db.query('SELECT * FROM products LIMIT $1 OFFSET $2', [limit, offset]);

// Send the query result to the client
res.json(queryResult.rows);

Send Paginated Data to the Client: Once you've retrieved the data for the specified page, you send it back to the client. Typically, you send both the data for the current page and some metadata to help the client understand the pagination.

Example response:

json

    {
      "data": [
        // Array of items for the current page
      ],
      "pagination": {
        "currentPage": 2,
        "totalItems": 100,
        "itemsPerPage": 10,
        "totalPages": 10
      }
    }

        data: An array containing the items for the current page.
        pagination: Metadata about the pagination, including the current page number, total number of items, items per page, and total number of pages.

    Client-Side Handling: On the client side (in your web page or app), you can create user interface elements (like "Next Page" and "Previous Page" buttons) to allow users to navigate through the paginated data. You also display the current page's data to the user.

    Error Handling: Handle cases where the requested page exceeds the available data or other error scenarios gracefully. Return appropriate HTTP status codes (e.g., 404 for not found, 500 for internal server errors) as needed.

Pagination is a common feature in web applications, especially when dealing with large datasets, and it can significantly improve the performance and usability of your application. It's essential to strike a balance between the number of items per page and the overall performance of your application, as fetching too many records at once can impact server resources and load times.